{"data":[{"id":28,"nickname":"Rashid Khitilov","title":"CONFIDENTIALITY NOTICE CONFIDENTIALITY NOTICE","description":"The contents of this email message and any attachments are intended solely for the addressee(s) and may contain confidential and\/or privileged information and may be legally protected from disclosure. If you are not the intended recipient of this message or their agent, or if this message has been addressed to you in error, please immediately alert the sender by reply email and then delete this message and any attachments. If you are not the intended recipient, you are hereby notified that any use, dissemination, copying, or storage of this message or its attachments is strictly prohibited.","image":"V6t2k4dMOc8ARhjXNE8zYobWlxrs0xekivgDZrYa.png","activity":1,"created_at":"2019-12-26 10:53:52","updated_at":"2019-12-26 10:53:52"},{"id":27,"nickname":"Rashid Khitilov","title":"CONFIDENTIALITY NOTICE CONFIDENTIALITY NOTICE","description":"The contents of this email message and any attachments are intended solely for the addressee(s) and may contain confidential and\/or privileged information and may be legally protected from disclosure. If you are not the intended recipient of this message or their agent, or if this message has been addressed to you in error, please immediately alert the sender by reply email and then delete this message and any attachments. If you are not the intended recipient, you are hereby notified that any use, dissemination, copying, or storage of this message or its attachments is strictly prohibited.","image":"X6JZgOOKwyEpX36vJjYEcT56sWk5uffLGoNVuyld.png","activity":1,"created_at":"2019-12-26 10:48:23","updated_at":"2019-12-26 10:48:23"},{"id":26,"nickname":"Rashid Khitilov","title":"CONFIDENTIALITY NOTICE CONFIDENTIALITY NOTICE","description":"The contents of this email message and any attachments are intended solely for the addressee(s) and may contain confidential and\/or privileged information and may be legally protected from disclosure. If you are not the intended recipient of this message or their agent, or if this message has been addressed to you in error, please immediately alert the sender by reply email and then delete this message and any attachments. If you are not the intended recipient, you are hereby notified that any use, dissemination, copying, or storage of this message or its attachments is strictly prohibited.","image":"qmixHyLaG4lIdacE1YruzZFhWE8qJq5oDNSMP1A6.png","activity":1,"created_at":"2019-12-26 09:20:38","updated_at":"2019-12-26 09:20:38"},{"id":25,"nickname":"Rashid Khitilov","title":"CONFIDENTIALITY NOTICE CONFIDENTIALITY NOTICE","description":"The contents of this email message and any attachments are intended solely for the addressee(s) and may contain confidential and\/or privileged information and may be legally protected from disclosure. If you are not the intended recipient of this message or their agent, or if this message has been addressed to you in error, please immediately alert the sender by reply email and then delete this message and any attachments. If you are not the intended recipient, you are hereby notified that any use, dissemination, copying, or storage of this message or its attachments is strictly prohibited.","image":"MkyxofeqBp9r7uCQjJFIZ7KvTmd2LzNFv840A0ER.jpeg","activity":1,"created_at":"2019-12-26 09:20:27","updated_at":"2019-12-26 09:20:27"},{"id":24,"nickname":"Rashid Khitilov","title":"CONFIDENTIALITY NOTICE CONFIDENTIALITY NOTICE","description":"The contents of this email message and any attachments are intended solely for the addressee(s) and may contain confidential and\/or privileged information and may be legally protected from disclosure. If you are not the intended recipient of this message or their agent, or if this message has been addressed to you in error, please immediately alert the sender by reply email and then delete this message and any attachments. If you are not the intended recipient, you are hereby notified that any use, dissemination, copying, or storage of this message or its attachments is strictly prohibited.","image":"u6gHaWdnCvmKKQX3Uf4IKnVXjyYlyO8WL0ijUSOk.png","activity":1,"created_at":"2019-12-26 08:24:44","updated_at":"2019-12-26 08:24:44"},{"id":23,"nickname":"Rashid Khitilov","title":"CONFIDENTIALITY NOTICE CONFIDENTIALITY NOTICE","description":"The contents of this email message and any attachments are intended solely for the addressee(s) and may contain confidential and\/or privileged information and may be legally protected from disclosure. If you are not the intended recipient of this message or their agent, or if this message has been addressed to you in error, please immediately alert the sender by reply email and then delete this message and any attachments. If you are not the intended recipient, you are hereby notified that any use, dissemination, copying, or storage of this message or its attachments is strictly prohibited.","image":"Fk6kbjPjgk3gWPvj5nYunswZJyn2VChXjgUaTako.png","activity":1,"created_at":"2019-12-26 08:14:03","updated_at":"2019-12-26 08:14:03"},{"id":22,"nickname":"Rashid Khitilov","title":"CONFIDENTIALITY NOTICE CONFIDENTIALITY NOTICE","description":"The contents of this email message and any attachments are intended solely for the addressee(s) and may contain confidential and\/or privileged information and may be legally protected from disclosure. If you are not the intended recipient of this message or their agent, or if this message has been addressed to you in error, please immediately alert the sender by reply email and then delete this message and any attachments. If you are not the intended recipient, you are hereby notified that any use, dissemination, copying, or storage of this message or its attachments is strictly prohibited.","image":"V2wouG3TByFAqogimiEdAB0Ra99RZi7XAlEzgybN.png","activity":1,"created_at":"2019-12-25 18:36:40","updated_at":"2019-12-25 18:36:40"},{"id":21,"nickname":"Rashid Khitilov","title":"CONFIDENTIALITY NOTICE CONFIDENTIALITY NOTICE","description":"The contents of this email message and any attachments are intended solely for the addressee(s) and may contain confidential and\/or privileged information and may be legally protected from disclosure. If you are not the intended recipient of this message or their agent, or if this message has been addressed to you in error, please immediately alert the sender by reply email and then delete this message and any attachments. If you are not the intended recipient, you are hereby notified that any use, dissemination, copying, or storage of this message or its attachments is strictly prohibited.","image":"AvOHkWSadZaCHTntyhKA1zExiVSnlyYWxDF4iSFJ.png","activity":1,"created_at":"2019-12-25 18:36:28","updated_at":"2019-12-25 18:36:28"}],"links":{"first":"http:\/\/10.110.16.17\/proactivecity\/public\/api\/posts?page=1","last":"http:\/\/10.110.16.17\/proactivecity\/public\/api\/posts?page=5","prev":"http:\/\/10.110.16.17\/proactivecity\/public\/api\/posts?page=1","next":"http:\/\/10.110.16.17\/proactivecity\/public\/api\/posts?page=3"},"meta":{"current_page":2,"from":9,"last_page":5,"path":"http:\/\/10.110.16.17\/proactivecity\/public\/api\/posts","per_page":8,"to":16,"total":36}}